Checkpoint2_Regfile/simulation/qsim/regfile.msim.vcd
$comment
	File created using the following command:
		vcd file regfile.msim.vcd -direction
$end
$date
	Mon Sep 30 10:03:28 2019
$end
$version
	ModelSim Version 10.4d
$end
$timescale
	1ps
$end

$scope module decoder5to32_vlg_vec_tst $end
$var reg 5 ! in [4:0] $end
$var wire 1 " out [31] $end
$var wire 1 # out [30] $end
$var wire 1 $ out [29] $end
$var wire 1 % out [28] $end
$var wire 1 & out [27] $end
$var wire 1 ' out [26] $end
$var wire 1 ( out [25] $end
$var wire 1 ) out [24] $end
$var wire 1 * out [23] $end
$var wire 1 + out [22] $end
$var wire 1 , out [21] $end
$var wire 1 - out [20] $end
$var wire 1 . out [19] $end
$var wire 1 / out [18] $end
$var wire 1 0 out [17] $end
$var wire 1 1 out [16] $end
$var wire 1 2 out [15] $end
$var wire 1 3 out [14] $end
$var wire 1 4 out [13] $end
$var wire 1 5 out [12] $end
$var wire 1 6 out [11] $end
$var wire 1 7 out [10] $end
$var wire 1 8 out [9] $end
$var wire 1 9 out [8] $end
$var wire 1 : out [7] $end
$var wire 1 ; out [6] $end
$var wire 1 < out [5] $end
$var wire 1 = out [4] $end
$var wire 1 > out [3] $end
$var wire 1 ? out [2] $end
$var wire 1 @ out [1] $end
$var wire 1 A out [0] $end

$scope module i1 $end
$var wire 1 B gnd $end
$var wire 1 C vcc $end
$var wire 1 D unknown $end
$var tri1 1 E devclrn $end
$var tri1 1 F devpor $end
$var tri1 1 G devoe $end
$var wire 1 H out[0]~output_o $end
$var wire 1 I out[1]~output_o $end
$var wire 1 J out[2]~output_o $end
$var wire 1 K out[3]~output_o $end
$var wire 1 L out[4]~output_o $end
$var wire 1 M out[5]~output_o $end
$var wire 1 N out[6]~output_o $end
$var wire 1 O out[7]~output_o $end
$var wire 1 P out[8]~output_o $end
$var wire 1 Q out[9]~output_o $end
$var wire 1 R out[10]~output_o $end
$var wire 1 S out[11]~output_o $end
$var wire 1 T out[12]~output_o $end
$var wire 1 U out[13]~output_o $end
$var wire 1 V out[14]~output_o $end
$var wire 1 W out[15]~output_o $end
$var wire 1 X out[16]~output_o $end
$var wire 1 Y out[17]~output_o $end
$var wire 1 Z out[18]~output_o $end
$var wire 1 [ out[19]~output_o $end
$var wire 1 \ out[20]~output_o $end
$var wire 1 ] out[21]~output_o $end
$var wire 1 ^ out[22]~output_o $end
$var wire 1 _ out[23]~output_o $end
$var wire 1 ` out[24]~output_o $end
$var wire 1 a out[25]~output_o $end
$var wire 1 b out[26]~output_o $end
$var wire 1 c out[27]~output_o $end
$var wire 1 d out[28]~output_o $end
$var wire 1 e out[29]~output_o $end
$var wire 1 f out[30]~output_o $end
$var wire 1 g out[31]~output_o $end
$var wire 1 h in[2]~input_o $end
$var wire 1 i in[3]~input_o $end
$var wire 1 j in[0]~input_o $end
$var wire 1 k in[1]~input_o $end
$var wire 1 l d4|d2|and4~4_combout $end
$var wire 1 m in[4]~input_o $end
$var wire 1 n d4|d2|and4~5_combout $end
$var wire 1 o d4|d2|and3~4_combout $end
$var wire 1 p d4|d2|and3~5_combout $end
$var wire 1 q d4|d2|and2~4_combout $end
$var wire 1 r d4|d2|and2~5_combout $end
$var wire 1 s d4|d2|and1~4_combout $end
$var wire 1 t d4|d2|and1~5_combout $end
$var wire 1 u d4|d1|and1~4_combout $end
$var wire 1 v d4|d1|and4~4_combout $end
$var wire 1 w d4|d1|and3~4_combout $end
$var wire 1 x d4|d1|and2~4_combout $end
$var wire 1 y d4|d1|and1~5_combout $end
$var wire 1 z d5|d2|and1~4_combout $end
$var wire 1 { d5|d2|and4~4_combout $end
$var wire 1 | d5|d2|and3~4_combout $end
$var wire 1 } d5|d2|and2~4_combout $end
$var wire 1 ~ d5|d2|and1~5_combout $end
$var wire 1 !! d5|d1|and1~4_combout $end
$var wire 1 "! d5|d1|and4~4_combout $end
$var wire 1 #! d5|d1|and3~4_combout $end
$var wire 1 $! d5|d1|and2~4_combout $end
$var wire 1 %! d5|d1|and1~5_combout $end
$var wire 1 &! d6|d2|and4~4_combout $end
$var wire 1 '! d6|d2|and3~4_combout $end
$var wire 1 (! d6|d2|and2~4_combout $end
$var wire 1 )! d6|d2|and1~4_combout $end
$var wire 1 *! d6|d1|and4~4_combout $end
$var wire 1 +! d6|d1|and3~4_combout $end
$var wire 1 ,! d6|d1|and2~4_combout $end
$var wire 1 -! d6|d1|and1~4_combout $end
$var wire 1 .! d7|d2|and4~4_combout $end
$var wire 1 /! d7|d2|and3~4_combout $end
$var wire 1 0! d7|d2|and2~4_combout $end
$var wire 1 1! d7|d2|and1~4_combout $end
$var wire 1 2! d7|d1|and4~4_combout $end
$var wire 1 3! d7|d1|and3~4_combout $end
$var wire 1 4! d7|d1|and2~4_combout $end
$var wire 1 5! d7|d1|and1~4_combout $end
$upscope $end
$upscope $end
$enddefinitions $end
#0
$dumpvars
b11000 !
0A
0@
0?
0>
0=
0<
0;
0:
09
08
07
06
05
04
03
02
01
00
0/
0.
0-
0,
0+
0*
1)
0(
0'
0&
0%
0$
0#
0"
0B
1C
xD
1E
1F
1G
0H
0I
0J
0K
0L
0M
0N
0O
0P
0Q
0R
0S
0T
0U
0V
0W
0X
0Y
0Z
0[
0\
0]
0^
0_
1`
0a
0b
0c
0d
0e
0f
0g
0h
1i
0j
0k
1l
1m
0n
0o
0p
0q
0r
0s
0t
0u
0v
0w
0x
0y
1z
0{
0|
0}
0~
0!!
0"!
0#!
0$!
0%!
0&!
0'!
0(!
0)!
0*!
0+!
0,!
0-!
1.!
0/!
00!
01!
02!
03!
04!
05!
$end
#100000
b10000 !
b10010 !
1k
0i
1q
0l
0z
10!
0.!
1&!
1X
0`
1b
1'
0)
11
1(!
0&!
00!
0b
0X
1Z
1/
01
0'
#200000
b10110 !
b10111 !
b10101 !
1j
0k
1h
0q
1o
1u
0(!
0Z
0/
1+!
1]
1,
#300000
b10001 !
b10000 !
0j
0h
0o
1l
0u
0+!
1*!
1'!
1Y
1\
0]
0,
1-
10
0'!
1&!
0*!
0\
1X
0Y
00
11
0-
#400000
b10001 !
1j
1o
0l
1'!
0&!
0X
1Y
10
01
#500000
b1 !
b11 !
1k
0m
1s
0o
0'!
1p
1I
0Y
00
1@
1t
0p
0I
1K
1>
0@
#600000
b1011 !
1i
1z
0t
0K
0>
1~
1S
16
#700000
b1111 !
b1110 !
b1100 !
0j
0k
1h
0s
1l
1!!
0z
0~
1{
1P
0S
06
19
1"!
0{
0P
1T
15
09
#800000
b100 !
b0 !
b1 !
1j
0h
0i
1o
0l
0!!
1#!
0"!
1n
1H
0T
1U
14
05
1A
1p
0n
0#!
0U
0H
1I
1@
0A
04
#900000
b11 !
b1011 !
b1111 !
1k
1h
1i
1s
0o
1!!
0p
0I
0@
1%!
1W
12
